Aula_7/Part2/simulation/qsim/MemoryBlocks.msim.vcd
$comment
	File created using the following command:
		vcd file MemoryBlocks.msim.vcd -direction
$end
$date
	Tue Oct 01 15:22:37 2024
$end
$version
	ModelSim Version 10.5b
$end
$timescale
	1ps
$end

$scope module ram32x4_vhd_vec_tst $end
$var wire 1 ! address [4] $end
$var wire 1 " address [3] $end
$var wire 1 # address [2] $end
$var wire 1 $ address [1] $end
$var wire 1 % address [0] $end
$var wire 1 & clock $end
$var wire 1 ' data [3] $end
$var wire 1 ( data [2] $end
$var wire 1 ) data [1] $end
$var wire 1 * data [0] $end
$var wire 1 + q [3] $end
$var wire 1 , q [2] $end
$var wire 1 - q [1] $end
$var wire 1 . q [0] $end
$var wire 1 / wren $end

$scope module i1 $end
$var wire 1 0 gnd $end
$var wire 1 1 vcc $end
$var wire 1 2 unknown $end
$var wire 1 3 devoe $end
$var wire 1 4 devclrn $end
$var wire 1 5 devpor $end
$var wire 1 6 ww_devoe $end
$var wire 1 7 ww_devclrn $end
$var wire 1 8 ww_devpor $end
$var wire 1 9 ww_address [4] $end
$var wire 1 : ww_address [3] $end
$var wire 1 ; ww_address [2] $end
$var wire 1 < ww_address [1] $end
$var wire 1 = ww_address [0] $end
$var wire 1 > ww_clock $end
$var wire 1 ? ww_data [3] $end
$var wire 1 @ ww_data [2] $end
$var wire 1 A ww_data [1] $end
$var wire 1 B ww_data [0] $end
$var wire 1 C ww_wren $end
$var wire 1 D ww_q [3] $end
$var wire 1 E ww_q [2] $end
$var wire 1 F ww_q [1] $end
$var wire 1 G ww_q [0] $end
$var wire 1 H \altsyncram_component|auto_generated|ram_block1a0_PORTADATAIN_bus\ [19] $end
$var wire 1 I \altsyncram_component|auto_generated|ram_block1a0_PORTADATAIN_bus\ [18] $end
$var wire 1 J \altsyncram_component|auto_generated|ram_block1a0_PORTADATAIN_bus\ [17] $end
$var wire 1 K \altsyncram_component|auto_generated|ram_block1a0_PORTADATAIN_bus\ [16] $end
$var wire 1 L \altsyncram_component|auto_generated|ram_block1a0_PORTADATAIN_bus\ [15] $end
$var wire 1 M \altsyncram_component|auto_generated|ram_block1a0_PORTADATAIN_bus\ [14] $end
$var wire 1 N \altsyncram_component|auto_generated|ram_block1a0_PORTADATAIN_bus\ [13] $end
$var wire 1 O \altsyncram_component|auto_generated|ram_block1a0_PORTADATAIN_bus\ [12] $end
$var wire 1 P \altsyncram_component|auto_generated|ram_block1a0_PORTADATAIN_bus\ [11] $end
$var wire 1 Q \altsyncram_component|auto_generated|ram_block1a0_PORTADATAIN_bus\ [10] $end
$var wire 1 R \altsyncram_component|auto_generated|ram_block1a0_PORTADATAIN_bus\ [9] $end
$var wire 1 S \altsyncram_component|auto_generated|ram_block1a0_PORTADATAIN_bus\ [8] $end
$var wire 1 T \altsyncram_component|auto_generated|ram_block1a0_PORTADATAIN_bus\ [7] $end
$var wire 1 U \altsyncram_component|auto_generated|ram_block1a0_PORTADATAIN_bus\ [6] $end
$var wire 1 V \altsyncram_component|auto_generated|ram_block1a0_PORTADATAIN_bus\ [5] $end
$var wire 1 W \altsyncram_component|auto_generated|ram_block1a0_PORTADATAIN_bus\ [4] $end
$var wire 1 X \altsyncram_component|auto_generated|ram_block1a0_PORTADATAIN_bus\ [3] $end
$var wire 1 Y \altsyncram_component|auto_generated|ram_block1a0_PORTADATAIN_bus\ [2] $end
$var wire 1 Z \altsyncram_component|auto_generated|ram_block1a0_PORTADATAIN_bus\ [1] $end
$var wire 1 [ \altsyncram_component|auto_generated|ram_block1a0_PORTADATAIN_bus\ [0] $end
$var wire 1 \ \altsyncram_component|auto_generated|ram_block1a0_PORTAADDR_bus\ [4] $end
$var wire 1 ] \altsyncram_component|auto_generated|ram_block1a0_PORTAADDR_bus\ [3] $end
$var wire 1 ^ \altsyncram_component|auto_generated|ram_block1a0_PORTAADDR_bus\ [2] $end
$var wire 1 _ \altsyncram_component|auto_generated|ram_block1a0_PORTAADDR_bus\ [1] $end
$var wire 1 ` \altsyncram_component|auto_generated|ram_block1a0_PORTAADDR_bus\ [0] $end
$var wire 1 a \altsyncram_component|auto_generated|ram_block1a0_PORTADATAOUT_bus\ [19] $end
$var wire 1 b \altsyncram_component|auto_generated|ram_block1a0_PORTADATAOUT_bus\ [18] $end
$var wire 1 c \altsyncram_component|auto_generated|ram_block1a0_PORTADATAOUT_bus\ [17] $end
$var wire 1 d \altsyncram_component|auto_generated|ram_block1a0_PORTADATAOUT_bus\ [16] $end
$var wire 1 e \altsyncram_component|auto_generated|ram_block1a0_PORTADATAOUT_bus\ [15] $end
$var wire 1 f \altsyncram_component|auto_generated|ram_block1a0_PORTADATAOUT_bus\ [14] $end
$var wire 1 g \altsyncram_component|auto_generated|ram_block1a0_PORTADATAOUT_bus\ [13] $end
$var wire 1 h \altsyncram_component|auto_generated|ram_block1a0_PORTADATAOUT_bus\ [12] $end
$var wire 1 i \altsyncram_component|auto_generated|ram_block1a0_PORTADATAOUT_bus\ [11] $end
$var wire 1 j \altsyncram_component|auto_generated|ram_block1a0_PORTADATAOUT_bus\ [10] $end
$var wire 1 k \altsyncram_component|auto_generated|ram_block1a0_PORTADATAOUT_bus\ [9] $end
$var wire 1 l \altsyncram_component|auto_generated|ram_block1a0_PORTADATAOUT_bus\ [8] $end
$var wire 1 m \altsyncram_component|auto_generated|ram_block1a0_PORTADATAOUT_bus\ [7] $end
$var wire 1 n \altsyncram_component|auto_generated|ram_block1a0_PORTADATAOUT_bus\ [6] $end
$var wire 1 o \altsyncram_component|auto_generated|ram_block1a0_PORTADATAOUT_bus\ [5] $end
$var wire 1 p \altsyncram_component|auto_generated|ram_block1a0_PORTADATAOUT_bus\ [4] $end
$var wire 1 q \altsyncram_component|auto_generated|ram_block1a0_PORTADATAOUT_bus\ [3] $end
$var wire 1 r \altsyncram_component|auto_generated|ram_block1a0_PORTADATAOUT_bus\ [2] $end
$var wire 1 s \altsyncram_component|auto_generated|ram_block1a0_PORTADATAOUT_bus\ [1] $end
$var wire 1 t \altsyncram_component|auto_generated|ram_block1a0_PORTADATAOUT_bus\ [0] $end
$var wire 1 u \~QUARTUS_CREATED_GND~I_combout\ $end
$var wire 1 v \wren~input_o\ $end
$var wire 1 w \clock~input_o\ $end
$var wire 1 x \clock~inputCLKENA0_outclk\ $end
$var wire 1 y \data[0]~input_o\ $end
$var wire 1 z \address[0]~input_o\ $end
$var wire 1 { \address[1]~input_o\ $end
$var wire 1 | \address[2]~input_o\ $end
$var wire 1 } \address[3]~input_o\ $end
$var wire 1 ~ \address[4]~input_o\ $end
$var wire 1 !! \data[1]~input_o\ $end
$var wire 1 "! \data[2]~input_o\ $end
$var wire 1 #! \data[3]~input_o\ $end
$var wire 1 $! \altsyncram_component|auto_generated|q_a\ [3] $end
$var wire 1 %! \altsyncram_component|auto_generated|q_a\ [2] $end
$var wire 1 &! \altsyncram_component|auto_generated|q_a\ [1] $end
$var wire 1 '! \altsyncram_component|auto_generated|q_a\ [0] $end
$upscope $end
$upscope $end
$enddefinitions $end
#0
$dumpvars
0&
1/
00
11
x2
13
14
15
16
17
18
0>
1C
xu
1v
0w
0x
0y
0z
0{
0|
0}
0~
0!!
0"!
0#!
0!
0"
0#
0$
0%
0'
0(
0)
0*
09
0:
0;
0<
0=
0?
0@
0A
0B
0D
0E
0F
0G
0a
0b
0c
0d
0e
0f
0g
0h
0i
0j
0k
0l
0m
0n
0o
0p
0q
0r
0s
0t
0$!
0%!
0&!
0'!
0H
0I
0J
0K
0L
0M
0N
0O
0P
0Q
0R
0S
0T
0U
0V
0W
0X
0Y
0Z
0[
0\
0]
0^
0_
0`
0+
0,
0-
0.
$end
#5000
1&
1>
1w
1x
#10000
0&
0>
0w
0x
#15000
1&
1>
1w
1x
#20000
0&
1%
1*
0>
1=
1B
1y
1z
0w
0x
1[
1`
#25000
1&
1>
1w
1x
#25001
1t
1'!
1G
1.
#30000
0&
0>
0w
0x
#35000
1&
1>
1w
1x
#40000
0&
0%
0*
1$
1)
0>
0=
1<
0B
1A
1!!
0y
1{
0z
0w
0x
0[
1Z
0`
1_
#45000
1&
1>
1w
1x
#45001
1s
0t
1&!
0'!
0G
1F
0.
1-
#50000
0&
0>
0w
0x
#55000
1&
1>
1w
1x
#60000
0&
1%
1*
0>
1=
1B
1y
1z
0w
0x
1[
1`
#65000
1&
1>
1w
1x
#65001
1t
1'!
1G
1.
#70000
0&
0>
0w
0x
#75000
1&
1>
1w
1x
#80000
0&
0%
0*
0$
0)
1#
1(
0>
0=
0<
1;
0B
0A
1@
1"!
0!!
0y
1|
0{
0z
0w
0x
0[
0Z
1Y
0`
0_
1^
#85000
1&
1>
1w
1x
#85001
1r
0s
0t
1%!
0&!
0'!
0G
0F
1E
0.
0-
1,
#90000
0&
0>
0w
0x
#95000
1&
1>
1w
1x
#100000
0&
1%
1*
0>
1=
1B
1y
1z
0w
0x
1[
1`
#105000
1&
1>
1w
1x
#105001
1t
1'!
1G
1.
#110000
0&
0>
0w
0x
#115000
1&
1>
1w
1x
#120000
0&
0%
0*
1$
1)
0>
0=
1<
0B
1A
1!!
0y
1{
0z
0w
0x
0[
1Z
0`
1_
#125000
1&
1>
1w
1x
#125001
1s
0t
1&!
0'!
0G
1F
0.
1-
#130000
0&
0>
0w
0x
#135000
1&
1>
1w
1x
#140000
0&
1%
1*
0>
1=
1B
1y
1z
0w
0x
1[
1`
#145000
1&
1>
1w
1x
#145001
1t
1'!
1G
1.
#150000
0&
0>
0w
0x
#155000
1&
1>
1w
1x
#160000
0&
0%
0*
0$
0)
0#
0(
1"
1'
0>
0=
0<
0;
1:
0B
0A
0@
1?
1#!
0"!
0!!
0y
1}
0|
0{
0z
0w
0x
0[
0Z
0Y
1X
0`
0_
0^
1]
#165000
1&
1>
1w
1x
#165001
1q
0r
0s
0t
1$!
0%!
0&!
0'!
0G
0F
0E
1D
0.
0-
0,
1+
#170000
0&
0>
0w
0x
#175000
1&
1>
1w
1x
#180000
0&
1%
1*
0>
1=
1B
1y
1z
0w
0x
1[
1`
#185000
1&
1>
1w
1x
#185001
1t
1'!
1G
1.
#190000
0&
0>
0w
0x
#195000
1&
1>
1w
1x
#200000
0&
0%
0*
1$
1)
0>
0=
1<
0B
1A
1!!
0y
1{
0z
0w
0x
0[
1Z
0`
1_
#205000
1&
1>
1w
1x
#205001
1s
0t
1&!
0'!
0G
1F
0.
1-
#210000
0&
0>
0w
0x
#215000
1&
1>
1w
1x
#220000
0&
1%
1*
0>
1=
1B
1y
1z
0w
0x
1[
1`
#225000
1&
1>
1w
1x
#225001
1t
1'!
1G
1.
#230000
0&
0>
0w
0x
#235000
1&
1>
1w
1x
#240000
0&
0%
0*
0$
0)
1#
1(
0>
0=
0<
1;
0B
0A
1@
1"!
0!!
0y
1|
0{
0z
0w
0x
0[
0Z
1Y
0`
0_
1^
#245000
1&
1>
1w
1x
#245001
1r
0s
0t
1%!
0&!
0'!
0G
0F
1E
0.
0-
1,
#250000
0&
0>
0w
0x
#255000
1&
1>
1w
1x
#260000
0&
1%
1*
0>
1=
1B
1y
1z
0w
0x
1[
1`
#265000
1&
1>
1w
1x
#265001
1t
1'!
1G
1.
#270000
0&
0>
0w
0x
#275000
1&
1>
1w
1x
#280000
0&
0%
0*
1$
1)
0>
0=
1<
0B
1A
1!!
0y
1{
0z
0w
0x
0[
1Z
0`
1_
#285000
1&
1>
1w
1x
#285001
1s
0t
1&!
0'!
0G
1F
0.
1-
#290000
0&
0>
0w
0x
#295000
1&
1>
1w
1x
#300000
0&
1%
1*
0>
1=
1B
1y
1z
0w
0x
1[
1`
#305000
1&
1>
1w
1x
#305001
1t
1'!
1G
1.
#310000
0&
0>
0w
0x
#315000
1&
1>
1w
1x
#320000
0&
0%
0*
0$
0)
0#
0(
0"
0'
1!
0>
0=
0<
0;
0:
19
0B
0A
0@
0?
0#!
0"!
0!!
0y
1~
0}
0|
0{
0z
0w
0x
0[
0Z
0Y
0X
0`
0_
0^
0]
1\
#325000
1&
1>
1w
1x
#325001
0q
0r
0s
0t
0$!
0%!
0&!
0'!
0G
0F
0E
0D
0.
0-
0,
0+
#330000
0&
0>
0w
0x
#335000
1&
1>
1w
1x
#340000
0&
1%
1*
0>
1=
1B
1y
1z
0w
0x
1[
1`
#345000
1&
1>
1w
1x
#345001
1t
1'!
1G
1.
#350000
0&
0>
0w
0x
#355000
1&
1>
1w
1x
#360000
0&
0%
0*
1$
1)
0>
0=
1<
0B
1A
1!!
0y
1{
0z
0w
0x
0[
1Z
0`
1_
#365000
1&
1>
1w
1x
#365001
1s
0t
1&!
0'!
0G
1F
0.
1-
#370000
0&
0>
0w
0x
#375000
1&
1>
1w
1x
#380000
0&
1%
1*
0>
1=
1B
1y
1z
0w
0x
1[
1`
#385000
1&
1>
1w
1x
#385001
1t
1'!
1G
1.
#390000
0&
0>
0w
0x
#395000
1&
1>
1w
1x
#400000
0&
0%
0*
0$
0)
1#
1(
0>
0=
0<
1;
0B
0A
1@
1"!
0!!
0y
1|
0{
0z
0w
0x
0[
0Z
1Y
0`
0_
1^
#405000
1&
1>
1w
1x
#405001
1r
0s
0t
1%!
0&!
0'!
0G
0F
1E
0.
0-
1,
#410000
0&
0>
0w
0x
#415000
1&
1>
1w
1x
#420000
0&
1%
1*
0>
1=
1B
1y
1z
0w
0x
1[
1`
#425000
1&
1>
1w
1x
#425001
1t
1'!
1G
1.
#430000
0&
0>
0w
0x
#435000
1&
1>
1w
1x
#440000
0&
0%
0*
1$
1)
0>
0=
1<
0B
1A
1!!
0y
1{
0z
0w
0x
0[
1Z
0`
1_
#445000
1&
1>
1w
1x
#445001
1s
0t
1&!
0'!
0G
1F
0.
1-
#450000
0&
0>
0w
0x
#455000
1&
1>
1w
1x
#460000
0&
1%
1*
0>
1=
1B
1y
1z
0w
0x
1[
1`
#465000
1&
1>
1w
1x
#465001
1t
1'!
1G
1.
#470000
0&
0>
0w
0x
#475000
1&
1>
1w
1x
#480000
0&
0%
0*
0$
0)
0#
0(
1"
1'
0>
0=
0<
0;
1:
0B
0A
0@
1?
1#!
0"!
0!!
0y
1}
0|
0{
0z
0w
0x
0[
0Z
0Y
1X
0`
0_
0^
1]
#485000
1&
1>
1w
1x
#485001
1q
0r
0s
0t
1$!
0%!
0&!
0'!
0G
0F
0E
1D
0.
0-
0,
1+
#490000
0&
0>
0w
0x
#495000
1&
1>
1w
1x
#500000
0&
1%
1*
0>
1=
1B
1y
1z
0w
0x
1[
1`
#505000
1&
1>
1w
1x
#505001
1t
1'!
1G
1.
#510000
0&
0>
0w
0x
#515000
1&
1>
1w
1x
#520000
0&
0%
0*
1$
1)
0>
0=
1<
0B
1A
1!!
0y
1{
0z
0w
0x
0[
1Z
0`
1_
#525000
1&
1>
1w
1x
#525001
1s
0t
1&!
0'!
0G
1F
0.
1-
#530000
0&
0>
0w
0x
#535000
1&
1>
1w
1x
#540000
0&
1%
1*
0>
1=
1B
1y
1z
0w
0x
1[
1`
#545000
1&
1>
1w
1x
#545001
1t
1'!
1G
1.
#550000
0&
0>
0w
0x
#555000
1&
1>
1w
1x
#560000
0&
0%
0*
0$
0)
1#
1(
0>
0=
0<
1;
0B
0A
1@
1"!
0!!
0y
1|
0{
0z
0w
0x
0[
0Z
1Y
0`
0_
1^
#565000
1&
1>
1w
1x
#565001
1r
0s
0t
1%!
0&!
0'!
0G
0F
1E
0.
0-
1,
#570000
0&
0>
0w
0x
#575000
1&
1>
1w
1x
#580000
0&
1%
1*
0>
1=
1B
1y
1z
0w
0x
1[
1`
#585000
1&
1>
1w
1x
#585001
1t
1'!
1G
1.
#590000
0&
0>
0w
0x
#595000
1&
1>
1w
1x
#600000
0&
0%
0*
1$
1)
0>
0=
1<
0B
1A
1!!
0y
1{
0z
0w
0x
0[
1Z
0`
1_
#605000
1&
1>
1w
1x
#605001
1s
0t
1&!
0'!
0G
1F
0.
1-
#610000
0&
0>
0w
0x
#615000
1&
1>
1w
1x
#620000
0&
1%
1*
0>
1=
1B
1y
1z
0w
0x
1[
1`
#625000
1&
1>
1w
1x
#625001
1t
1'!
1G
1.
#630000
0&
0>
0w
0x
#635000
1&
1>
1w
1x
#640000
0&
0%
0*
0$
0)
0#
0(
0"
0'
0!
0>
0=
0<
0;
0:
09
0B
0A
0@
0?
0#!
0"!
0!!
0y
0~
0}
0|
0{
0z
0w
0x
0[
0Z
0Y
0X
0`
0_
0^
0]
0\
#645000
1&
1>
1w
1x
#645001
0q
0r
0s
0t
0$!
0%!
0&!
0'!
0G
0F
0E
0D
0.
0-
0,
0+
#650000
0&
0>
0w
0x
#655000
1&
1>
1w
1x
#660000
0&
1%
1*
0>
1=
1B
1y
1z
0w
0x
1[
1`
#665000
1&
1>
1w
1x
#665001
1t
1'!
1G
1.
#670000
0&
0>
0w
0x
#675000
1&
1>
1w
1x
#680000
0&
0%
0*
1$
1)
0>
0=
1<
0B
1A
1!!
0y
1{
0z
0w
0x
0[
1Z
0`
1_
#685000
1&
1>
1w
1x
#685001
1s
0t
1&!
0'!
0G
1F
0.
1-
#690000
0&
0>
0w
0x
#695000
1&
1>
1w
1x
#700000
0&
1%
1*
0>
1=
1B
1y
1z
0w
0x
1[
1`
#705000
1&
1>
1w
1x
#705001
1t
1'!
1G
1.
#710000
0&
0>
0w
0x
#715000
1&
1>
1w
1x
#720000
0&
0%
0*
0$
0)
1#
1(
0>
0=
0<
1;
0B
0A
1@
1"!
0!!
0y
1|
0{
0z
0w
0x
0[
0Z
1Y
0`
0_
1^
#725000
1&
1>
1w
1x
#725001
1r
0s
0t
1%!
0&!
0'!
0G
0F
1E
0.
0-
1,
#730000
0&
0>
0w
0x
#735000
1&
1>
1w
1x
#740000
0&
1%
1*
0>
1=
1B
1y
1z
0w
0x
1[
1`
#745000
1&
1>
1w
1x
#745001
1t
1'!
1G
1.
#750000
0&
0>
0w
0x
#755000
1&
1>
1w
1x
#760000
0&
0%
0*
1$
1)
0>
0=
1<
0B
1A
1!!
0y
1{
0z
0w
0x
0[
1Z
0`
1_
#765000
1&
1>
1w
1x
#765001
1s
0t
1&!
0'!
0G
1F
0.
1-
#770000
0&
0>
0w
0x
#775000
1&
1>
1w
1x
#780000
0&
1%
1*
0>
1=
1B
1y
1z
0w
0x
1[
1`
#785000
1&
1>
1w
1x
#785001
1t
1'!
1G
1.
#790000
0&
0>
0w
0x
#795000
1&
1>
1w
1x
#800000
0&
0%
0*
0$
0)
0#
0(
1"
1'
0>
0=
0<
0;
1:
0B
0A
0@
1?
1#!
0"!
0!!
0y
1}
0|
0{
0z
0w
0x
0[
0Z
0Y
1X
0`
0_
0^
1]
#805000
1&
1>
1w
1x
#805001
1q
0r
0s
0t
1$!
0%!
0&!
0'!
0G
0F
0E
1D
0.
0-
0,
1+
#810000
0&
0>
0w
0x
#815000
1&
1>
1w
1x
#820000
0&
1%
1*
0>
1=
1B
1y
1z
0w
0x
1[
1`
#825000
1&
1>
1w
1x
#825001
1t
1'!
1G
1.
#830000
0&
0>
0w
0x
#835000
1&
1>
1w
1x
#840000
0&
0%
0*
1$
1)
0>
0=
1<
0B
1A
1!!
0y
1{
0z
0w
0x
0[
1Z
0`
1_
#845000
1&
1>
1w
1x
#845001
1s
0t
1&!
0'!
0G
1F
0.
1-
#850000
0&
0>
0w
0x
#855000
1&
1>
1w
1x
#860000
0&
1%
1*
0>
1=
1B
1y
1z
0w
0x
1[
1`
#865000
1&
1>
1w
1x
#865001
1t
1'!
1G
1.
#870000
0&
0>
0w
0x
#875000
1&
1>
1w
1x
#880000
0&
0%
0*
0$
0)
1#
1(
0>
0=
0<
1;
0B
0A
1@
1"!
0!!
0y
1|
0{
0z
0w
0x
0[
0Z
1Y
0`
0_
1^
#885000
1&
1>
1w
1x
#885001
1r
0s
0t
1%!
0&!
0'!
0G
0F
1E
0.
0-
1,
#890000
0&
0>
0w
0x
#895000
1&
1>
1w
1x
#900000
0&
1%
1*
0>
1=
1B
1y
1z
0w
0x
1[
1`
#905000
1&
1>
1w
1x
#905001
1t
1'!
1G
1.
#910000
0&
0>
0w
0x
#915000
1&
1>
1w
1x
#920000
0&
0%
0*
1$
1)
0>
0=
1<
0B
1A
1!!
0y
1{
0z
0w
0x
0[
1Z
0`
1_
#925000
1&
1>
1w
1x
#925001
1s
0t
1&!
0'!
0G
1F
0.
1-
#930000
0&
0>
0w
0x
#935000
1&
1>
1w
1x
#940000
0&
1%
1*
0>
1=
1B
1y
1z
0w
0x
1[
1`
#945000
1&
1>
1w
1x
#945001
1t
1'!
1G
1.
#950000
0&
0>
0w
0x
#955000
1&
1>
1w
1x
#960000
0&
0%
0*
0$
0)
0#
0(
0"
0'
1!
0>
0=
0<
0;
0:
19
0B
0A
0@
0?
0#!
0"!
0!!
0y
1~
0}
0|
0{
0z
0w
0x
0[
0Z
0Y
0X
0`
0_
0^
0]
1\
#965000
1&
1>
1w
1x
#965001
0q
0r
0s
0t
0$!
0%!
0&!
0'!
0G
0F
0E
0D
0.
0-
0,
0+
#970000
0&
0>
0w
0x
#975000
1&
1>
1w
1x
#980000
0&
1%
1*
0>
1=
1B
1y
1z
0w
0x
1[
1`
#985000
1&
1>
1w
1x
#985001
1t
1'!
1G
1.
#990000
0&
0>
0w
0x
#995000
1&
1>
1w
1x
